{
  "sections": {
    "collection-header": {
      "type": "collection-page-header",
      "settings": {
        "container": "container",
        "layout": "inside",
        "header_height": "small",
        "text_alignment": "center",
        "vertical_alignment": "center",
        "text_color": "dark",
        "bg_color": "#ffffff",
        "enable_parallax": false,
        "upper_title": false,
        "show_desc": false,
        "collection_all_desc": ""
      }
    },
    "flash-sale": {
      "type": "flash-sale",
      "settings": {}
    },
    "main": {
      "type": "main-collection-product-grid",
      "settings": {
        "container": "container",
        "grid_layout": "grid",
        "grid_columns": "4",
        "show_columns_switcher": true,
        "show_sorting": true,
        "show_filter": false,
        "filters_type": "tags_filter",
        "sidebar": "leftColumn",
        "sidebar_title": "Filters",
        "limit_height_widget": false,
        "limit_height": 300,
        "change_product_variant_on_fitlering": true,
        "show_product_count": true,
        "collapsed_groups": "Brand, Vendor, Size",
        "pagination_limit": 12,
        "paginate_type": "paginate"
      }
    },
    "recent-viewed": {
      "type": "recent-viewed-products",
      "settings": {
        "container": "container",
        "heading": "Recently Viewed Products",
        "limit": 8,
        "columns": 4,
        "column_gap": 30,
        "enable_slider": true
      }
    },
    "16463405398fd901b4": {
      "type": "image-with-text-1",
      "disabled": true,
      "blocks": {
        "1646340539e41360b1-0": {
          "type": "item",
          "settings": {
            "content_position": "bottom_center",
            "content_alignment": "left",
            "text_size": "medium",
            "text_color": "black",
            "link": "",
            "title": "",
            "subtitle": "",
            "button_label": "Shop now",
            "button_style": "sf__btn-primary",
            "button_size": ""
          }
        },
        "1646340539e41360b1-1": {
          "type": "item",
          "settings": {
            "content_position": "bottom_center",
            "content_alignment": "left",
            "text_size": "medium",
            "text_color": "black",
            "link": "",
            "title": "",
            "subtitle": "",
            "button_label": "Shop now",
            "button_style": "sf__btn-primary",
            "button_size": ""
          }
        },
        "1646340539e41360b1-2": {
          "type": "item",
          "settings": {
            "content_position": "bottom_center",
            "content_alignment": "left",
            "text_size": "medium",
            "text_color": "black",
            "link": "",
            "title": "",
            "subtitle": "",
            "button_label": "Shop now",
            "button_style": "sf__btn-primary",
            "button_size": ""
          }
        },
        "1646340539e41360b1-3": {
          "type": "item",
          "settings": {
            "content_position": "bottom_center",
            "content_alignment": "left",
            "text_size": "medium",
            "text_color": "black",
            "link": "",
            "title": "",
            "subtitle": "",
            "button_label": "Shop now",
            "button_style": "sf__btn-primary",
            "button_size": ""
          }
        },
        "1646340539e41360b1-4": {
          "type": "item",
          "settings": {
            "content_position": "bottom_center",
            "content_alignment": "left",
            "text_size": "medium",
            "text_color": "black",
            "link": "",
            "title": "",
            "subtitle": "",
            "button_label": "Shop now",
            "button_style": "sf__btn-primary",
            "button_size": ""
          }
        }
      },
      "block_order": [
        "1646340539e41360b1-0",
        "1646340539e41360b1-1",
        "1646340539e41360b1-2",
        "1646340539e41360b1-3",
        "1646340539e41360b1-4"
      ],
      "settings": {
        "heading": "Featured collection",
        "subheading": "",
        "description": "",
        "header_alignment": "center",
        "container": "container-fluid",
        "background_color": "rgba(0,0,0,0)",
        "layout": "layout_1",
        "gap": 30,
        "use_scroll_mobile": true,
        "mobile_gap": 10,
        "custom_class": ""
      }
    }
  },
  "order": [
    "collection-header",
    "flash-sale",
    "main",
    "recent-viewed",
    "16463405398fd901b4"
  ]
}