{
  "sections": {
    "main": {
      "type": "page",
      "disabled": true,
      "settings": {}
    },
    "164902361804acc657": {
      "type": "custom-content",
      "blocks": {
        "1649023618e5d94faf-0": {
          "type": "text",
          "disabled": true,
          "settings": {
            "title": "Talk about your brand",
            "subheading": "",
            "text": "<p>Use this text to share information about your brand with your customers. Describe a product, share announcements, or welcome customers to your store.<\/p>",
            "width": "50%",
            "alignment": "center",
            "align_text": "left",
            "text_size": "medium",
            "text_color": "black",
            "button_label": "",
            "button_link": "",
            "button_style": "sf__btn-primary",
            "button_size": "",
            "block_custom_class": ""
          }
        },
        "1649023618e5d94faf-1": {
          "type": "image",
          "disabled": true,
          "settings": {
            "link": "",
            "width": "50%",
            "alignment": "center",
            "block_custom_class": ""
          }
        }
      },
      "block_order": [
        "1649023618e5d94faf-0",
        "1649023618e5d94faf-1"
      ],
      "settings": {
        "heading": "<h3>See Why People Love Natasha's<\/h3>",
        "subheading": "<h5>Over 900+ Reviews and Counting!<\/h5>",
        "description": "",
        "header_alignment": "center",
        "container": "container-fluid",
        "background_color": "",
        "gap": 30,
        "use_scroll_mobile": false,
        "gap_mobile": 16,
        "custom_class": ""
      }
    },
    "16490235997bf6691b": {
      "type": "apps",
      "blocks": {
        "5331a4d6-ee93-48b6-baea-683342152a25": {
          "type": "shopify:\/\/apps\/judge-me-product-reviews\/blocks\/all_reviews_page\/61ccd3b1-a9f2-4160-9fe9-4fec8413e5d8",
          "settings": {
            "extra_wrapper_classes": "page-width page-width--narrow"
          }
        }
      },
      "block_order": [
        "5331a4d6-ee93-48b6-baea-683342152a25"
      ],
      "settings": {
        "heading": "",
        "subheading": "",
        "header_alignment": "center",
        "container": "container-fluid",
        "background_color": "",
        "custom_class": ""
      }
    }
  },
  "order": [
    "main",
    "164902361804acc657",
    "16490235997bf6691b"
  ]
}