{
  "sections": {
    "breadcrumb": {
      "type": "breadcrumb",
      "disabled": true,
      "settings": {
        "container": "container",
        "text_alignment": "center",
        "hide_current": false,
        "hide_on_mb": false
      }
    },
    "main": {
      "type": "main-product",
      "blocks": {
        "title": {
          "type": "title",
          "settings": {}
        },
        "1f9d4db4-c02b-427f-b72d-7930e2ce8d5f": {
          "type": "short_description",
          "settings": {}
        },
        "e51efb5d-4a8d-484a-b447-e5e10906f1f1": {
          "type": "description",
          "settings": {}
        },
        "price": {
          "type": "price",
          "settings": {
            "show_saving": false
          }
        },
        "variant_picker": {
          "type": "variant_picker",
          "settings": {
            "size_title": "Size"
          }
        },
        "buy_buttons": {
          "type": "buy_buttons",
          "settings": {
            "show_quantity_selector": true,
            "show_atc_button": true,
            "show_dynamic_checkout": false
          }
        },
        "addons": {
          "type": "addons",
          "settings": {
            "show_atcp": true,
            "show_ask_a_question": true,
            "show_social": true
          }
        }
      },
      "block_order": [
        "title",
        "1f9d4db4-c02b-427f-b72d-7930e2ce8d5f",
        "e51efb5d-4a8d-484a-b447-e5e10906f1f1",
        "price",
        "variant_picker",
        "buy_buttons",
        "addons"
      ],
      "settings": {
        "container": "w-full",
        "layout": "layout-6",
        "show_atwl": false,
        "enable_history_state": false,
        "show_featured_media": true,
        "show_zoom_button": false,
        "enable_video_autoplay": false,
        "show_nav_media_mobile": false,
        "show_pagination_mobile": true,
        "use_sticky_atc": false,
        "use_sticky_atc_on_mobile": false,
        "enable_dynamic_checkout": false,
        "sticky_atc_wishtlist": false,
        "sticky_atc_compare": false
      }
    },
    "product-details-tabs": {
      "type": "product-details-tabs",
      "disabled": true,
      "blocks": {
        "description": {
          "type": "description",
          "settings": {
            "header": "Product description"
          }
        },
        "tab": {
          "type": "tab",
          "settings": {
            "header": "Shipping & Return",
            "content": "<p>Shipping cost is based on weight. Just add products to your cart and use the Shipping Calculator to see the shipping price.<\/p><p>We want you to be 100% satisfied with your purchase. Items can be returned or exchanged within 30 days of delivery.<\/p>",
            "content_page": ""
          }
        }
      },
      "block_order": [
        "description",
        "tab"
      ],
      "settings": {
        "container": "container",
        "bg_color": "#ffffff",
        "default_open": true
      }
    },
    "product-recommendations": {
      "type": "product-recommendations",
      "disabled": true,
      "settings": {
        "container": "container",
        "heading": "You Might Also Like",
        "limit": 8,
        "columns": 4,
        "column_gap": 30,
        "enable_slider": true
      }
    },
    "recent-viewed-products": {
      "type": "recent-viewed-products",
      "disabled": true,
      "settings": {
        "container": "container",
        "heading": "Recently Viewed Products",
        "limit": 8,
        "columns": 4,
        "column_gap": 30,
        "enable_slider": true
      }
    },
    "1646426570a8a2012f": {
      "type": "collapsible-tabs",
      "disabled": true,
      "blocks": {
        "1646426570a70293c9-0": {
          "type": "item",
          "settings": {
            "header": "Collapsible tab heading",
            "content": "<p>Shipping cost is based on weight. Just add products to your cart and use the Shipping Calculator to see the shipping price.<\/p><p>We want you to be 100% satisfied with your purchase. Items can be returned or exchanged within 30 days of delivery.<\/p>",
            "content_page": "",
            "open": false
          }
        },
        "1646426570a70293c9-1": {
          "type": "item",
          "settings": {
            "header": "Collapsible tab heading",
            "content": "<p>Shipping cost is based on weight. Just add products to your cart and use the Shipping Calculator to see the shipping price.<\/p><p>We want you to be 100% satisfied with your purchase. Items can be returned or exchanged within 30 days of delivery.<\/p>",
            "content_page": "",
            "open": false
          }
        }
      },
      "block_order": [
        "1646426570a70293c9-0",
        "1646426570a70293c9-1"
      ],
      "settings": {
        "container": "container"
      }
    }
  },
  "order": [
    "breadcrumb",
    "main",
    "product-details-tabs",
    "product-recommendations",
    "recent-viewed-products",
    "1646426570a8a2012f"
  ]
}